^D:\MY DOCUMENTS\计算机图形学\P1\P1\MAIN.CPP
D:\MY DOCUMENTS\计算机图形学\P1\P1\DEBUG\VC100.PDB
D:\MY DOCUMENTS\计算机图形学\P1\P1\DEBUG\MAIN.OBJ
^D:\MY DOCUMENTS\计算机动画\P1\P1\MAIN.CPP
D:\MY DOCUMENTS\计算机动画\P1\P1\DEBUG\MAIN.OBJ
D:\MY DOCUMENTS\计算机动画\P1\P1\DEBUG\VC100.PDB
