^D:\MY DOCUMENTS\计算机图形学\P1\P1\DEBUG\P1.EXE.INTERMEDIATE.MANIFEST
/nologo /verbose /out:"Debug\p1.exe.embed.manifest" /manifest Debug\p1.exe.intermediate.manifest
^D:\MY DOCUMENTS\计算机动画\P1\P1\DEBUG\P1.EXE.INTERMEDIATE.MANIFEST
/nologo /verbose /out:"Debug\p1.exe.embed.manifest" /manifest Debug\p1.exe.intermediate.manifest
