^D:\MY DOCUMENTS\计算机图形学\P1\P1\DEBUG\P1_MANIFEST.RC
/nologo /fo"Debug\p1.exe.embed.manifest.res" Debug\p1_manifest.rc /nologo /fo"Debug\p1.exe.embed.manifest.res" D:\MY DOCUMENTS\计算机图形学\P1\P1\DEBUG\P1_MANIFEST.RC
^D:\MY DOCUMENTS\计算机动画\P1\P1\DEBUG\P1_MANIFEST.RC
/nologo /fo"Debug\p1.exe.embed.manifest.res" Debug\p1_manifest.rc /nologo /fo"Debug\p1.exe.embed.manifest.res" D:\MY DOCUMENTS\计算机动画\P1\P1\DEBUG\P1_MANIFEST.RC
