^D:\MY DOCUMENTS\计算机动画\P3\P3\DEBUG\MAIN.OBJ|D:\MY DOCUMENTS\计算机动画\P3\P3\DEBUG\P3.EXE.EMBED.MANIFEST.RES
/ERRORREPORT:PROMPT /OUT:"D:\My documents\计算机动画\p3\Debug\p3.exe" /INCREMENTAL /NOLOGO kernel32.lib user32.lib gdi32.lib winspool.lib comdlg32.lib advapi32.lib shell32.lib ole32.lib oleaut32.lib uuid.lib odbc32.lib odbccp32.lib /MANIFEST /ManifestFile:"Debug\p3.exe.intermediate.manifest" /MANIFESTUAC:"level='asInvoker' uiAccess='false'" /DEBUG /PDB:"D:\My documents\计算机动画\p3\Debug\p3.pdb" /SUBSYSTEM:WINDOWS /TLBID:1 /DYNAMICBASE /NXCOMPAT /IMPLIB:"D:\My documents\计算机动画\p3\Debug\p3.lib" /MACHINE:X86 Debug\p3.exe.embed.manifest.res
Debug\main.obj
